{
  "twitter": [
    {
      "date": 1554450062334,
      "count": 164390
    },
    {
      "date": 1554450123597,
      "count": 164390
    },
    {
      "date": 1554450182188,
      "count": 164390
    },
    {
      "date": 1554450241907,
      "count": 164390
    },
    {
      "date": 1554450302044,
      "count": 164390
    },
    {
      "date": 1554450363357,
      "count": 164390
    },
    {
      "date": 1554450422443,
      "count": 164390
    },
    {
      "date": 1554450481926,
      "count": 164390
    },
    {
      "date": 1554450842493,
      "count": 164390
    },
    {
      "date": 1554450902073,
      "count": 164391
    },
    {
      "date": 1554451141938,
      "count": 164391
    },
    {
      "date": 1554451202309,
      "count": 164391
    },
    {
      "date": 1554451260808,
      "count": 164391
    },
    {
      "date": 1554451261357,
      "count": 164391
    },
    {
      "date": 1554451262370,
      "count": 164391
    },
    {
      "date": 1554451262786,
      "count": 164391
    },
    {
      "date": 1554451263784,
      "count": 164391
    },
    {
      "date": 1554451264710,
      "count": 164391
    },
    {
      "date": 1554451327472,
      "count": 164392
    },
    {
      "date": 1554451383466,
      "count": 164392
    },
    {
      "date": 1554451417428,
      "count": 164392
    },
    {
      "date": 1554451421932,
      "count": 164392
    },
    {
      "date": 1554451457003,
      "count": 164392
    },
    {
      "date": 1554451461705,
      "count": 164392
    },
    {
      "date": 1554452370048,
      "count": 164394
    },
    {
      "date": 1554452460739
    },
    {
      "date": 1554452520820
    },
    {
      "date": 1554452580822
    },
    {
      "date": 1554452640984
    },
    {
      "date": 1554452727738
    },
    {
      "date": 1554452728587
    },
    {
      "date": 1554452729705
    },
    {
      "date": 1554452730722
    },
    {
      "date": 1554452731623
    },
    {
      "date": 1554452770804
    },
    {
      "date": 1554453251419
    }
  ],
  "instagram": [
    {
      "date": 1554450062335,
      "count": 19598
    },
    {
      "date": 1554450123597,
      "count": 19598
    },
    {
      "date": 1554450182188,
      "count": 19598
    },
    {
      "date": 1554450241907,
      "count": 19598
    },
    {
      "date": 1554450302045,
      "count": 19598
    },
    {
      "date": 1554450363359,
      "count": 19598
    },
    {
      "date": 1554450422444,
      "count": 193139
    },
    {
      "date": 1554450481927,
      "count": 193140
    },
    {
      "date": 1554450842495,
      "count": 1084
    },
    {
      "date": 1554450902073,
      "count": 1084
    },
    {
      "date": 1554451141939,
      "count": 0
    },
    {
      "date": 1554451202311,
      "count": 0
    },
    {
      "date": 1554451260809,
      "count": 0
    },
    {
      "date": 1554451261357,
      "count": 0
    },
    {
      "date": 1554451262370,
      "count": 0
    },
    {
      "date": 1554451262786,
      "count": 0
    },
    {
      "date": 1554451263784,
      "count": 0
    },
    {
      "date": 1554451264712,
      "count": 0
    },
    {
      "date": 1554451327473,
      "count": 0
    },
    {
      "date": 1554451383467,
      "count": 0
    },
    {
      "date": 1554451417430,
      "count": 0
    },
    {
      "date": 1554451421932,
      "count": 0
    },
    {
      "date": 1554451457004,
      "count": 0
    },
    {
      "date": 1554451461706,
      "count": 0
    },
    {
      "date": 1554452370050
    },
    {
      "date": 1554452460740,
      "count": 164394
    },
    {
      "date": 1554452520821,
      "count": 164394
    },
    {
      "date": 1554452580823,
      "count": 164394
    },
    {
      "date": 1554452640986,
      "count": 164394
    },
    {
      "date": 1554452727739,
      "count": 164395
    },
    {
      "date": 1554452728587,
      "count": 164395
    },
    {
      "date": 1554452729705,
      "count": 164395
    },
    {
      "date": 1554452730722,
      "count": 164395
    },
    {
      "date": 1554452731625,
      "count": 164395
    },
    {
      "date": 1554452770810,
      "count": 164395
    },
    {
      "date": 1554453251421,
      "count": 164396
    }
  ]
}